%YAML 1.1
%TAG !u! tag:unity3d.com,2011:
--- !u!1 &3457453610610726495
GameObject:
  m_ObjectHideFlags: 0
  m_CorrespondingSourceObject: {fileID: 0}
  m_PrefabInstance: {fileID: 0}
  m_PrefabAsset: {fileID: 0}
  serializedVersion: 6
  m_Component:
  - component: {fileID: 3457453610610726493}
  - component: {fileID: 3457453610610726492}
  - component: {fileID: 2881126414673757183}
  m_Layer: 0
  m_Name: GameManager
  m_TagString: Untagged
  m_Icon: {fileID: 0}
  m_NavMeshLayer: 0
  m_StaticEditorFlags: 0
  m_IsActive: 1
--- !u!4 &3457453610610726493
Transform:
  m_ObjectHideFlags: 0
  m_CorrespondingSourceObject: {fileID: 0}
  m_PrefabInstance: {fileID: 0}
  m_PrefabAsset: {fileID: 0}
  m_GameObject: {fileID: 3457453610610726495}
  m_LocalRotation: {x: 0, y: 0, z: 0, w: 1}
  m_LocalPosition: {x: 0, y: 0, z: 0}
  m_LocalScale: {x: 1, y: 1, z: 1}
  m_Children: []
  m_Father: {fileID: 0}
  m_RootOrder: 0
  m_LocalEulerAnglesHint: {x: 0, y: 0, z: 0}
--- !u!114 &3457453610610726492
MonoBehaviour:
  m_ObjectHideFlags: 0
  m_CorrespondingSourceObject: {fileID: 0}
  m_PrefabInstance: {fileID: 0}
  m_PrefabAsset: {fileID: 0}
  m_GameObject: {fileID: 3457453610610726495}
  m_Enabled: 1
  m_EditorHideFlags: 0
  m_Script: {fileID: 11500000, guid: 74093fd0d51592e4e960daa28fd9f7e3, type: 3}
  m_Name: 
  m_EditorClassIdentifier: 
  tutorialMaskPrefab: {fileID: 0}
  conversationUIPrefab: {fileID: 0}
  conversationUIPrefabBrocker: {fileID: 0}
  hintUIPrefab: {fileID: 0}
  tutorFromStart: 0
  Reward: {fileID: 0}
  BuildMenuPanel: {fileID: 0}
  ImageDb: {fileID: 0}
--- !u!114 &2881126414673757183
MonoBehaviour:
  m_ObjectHideFlags: 0
  m_CorrespondingSourceObject: {fileID: 0}
  m_PrefabInstance: {fileID: 0}
  m_PrefabAsset: {fileID: 0}
  m_GameObject: {fileID: 3457453610610726495}
  m_Enabled: 1
  m_EditorHideFlags: 0
  m_Script: {fileID: 11500000, guid: bc086f3d45924dfca8582bf39fed68e4, type: 3}
  m_Name: 
  m_EditorClassIdentifier: 
  MillSpriteList:
  - {fileID: 21300000, guid: ac6df2e6c9b2d9542891f9db2110a848, type: 3}
  - {fileID: 21300000, guid: 0a0fa5616e5327c428633a277e464455, type: 3}
  - {fileID: 21300000, guid: ca095d2e03cd1f847bc793ce0ec174f3, type: 3}
  - {fileID: 21300104, guid: e48ddf4fb7304ce4ab48711eb6617a57, type: 3}
  - {fileID: 21300100, guid: e48ddf4fb7304ce4ab48711eb6617a57, type: 3}
  - {fileID: 21300012, guid: f5f1c19ce87450f4b97f8b363746558d, type: 3}
  FarmSpriteList:
  - {fileID: 21300000, guid: ad57011d154236b48ae335bdd521f1bd, type: 3}
  - {fileID: 21300000, guid: 43f0a60c4b6164844b7aaa80bf59d5de, type: 3}
  - {fileID: 21300000, guid: e0cc9e29a7f0902439695ef4ffd4e5b4, type: 3}
  - {fileID: 21300000, guid: f0c11ff397653da41aec44434a14befc, type: 3}
  - {fileID: 21300000, guid: 99df7d6aea4b45b4fa2fc5ba384acfef, type: 3}
  - {fileID: 21300000, guid: 79f25ed73db08f14bbad6b0b18f34ee5, type: 3}
  BarrackSpriteList:
  - {fileID: 21300004, guid: f5f1c19ce87450f4b97f8b363746558d, type: 3}
  - {fileID: 21300162, guid: f5f1c19ce87450f4b97f8b363746558d, type: 3}
  - {fileID: 21300010, guid: f5f1c19ce87450f4b97f8b363746558d, type: 3}
  - {fileID: 21300104, guid: e48ddf4fb7304ce4ab48711eb6617a57, type: 3}
  - {fileID: 21300114, guid: f5f1c19ce87450f4b97f8b363746558d, type: 3}
  - {fileID: 21300006, guid: e48ddf4fb7304ce4ab48711eb6617a57, type: 3}
