%YAML 1.1
%TAG !u! tag:unity3d.com,2011:
--- !u!114 &11400000
MonoBehaviour:
  m_ObjectHideFlags: 0
  m_CorrespondingSourceObject: {fileID: 0}
  m_PrefabInstance: {fileID: 0}
  m_PrefabAsset: {fileID: 0}
  m_GameObject: {fileID: 0}
  m_Enabled: 1
  m_EditorHideFlags: 0
  m_Script: {fileID: 11500000, guid: 48f4c976862ed204d9cafd4b57d30a98, type: 3}
  m_Name: FabrosConfig
  m_EditorClassIdentifier: 
  configs:
  - SpreadsheetID: 1Y-ChbHYiuchi9_ff-WDnw8bPCDmuVwE08MtbnrR1bIk
    ClassName: GameSetting
    FileName: GameSetting
    CodeFilePath: Assets/Scripts/Core/
  - SpreadsheetID: 18m2ZIjVLuRpCbURN8P66whz1ySY6dv4OVOrbFeDSlTI
    ClassName: LocaleRU
    FileName: LocaleRU
    CodeFilePath: Assets/Scripts/Core/
  credentials: D:/Develop/Devolution/Tools/gdexport/googletoxml/furry-service.json
